%YAML 1.1
%TAG !u! tag:unity3d.com,2011:
--- !u!114 &11400000
MonoBehaviour:
  m_ObjectHideFlags: 0
  m_CorrespondingSourceObject: {fileID: 0}
  m_PrefabInstance: {fileID: 0}
  m_PrefabAsset: {fileID: 0}
  m_GameObject: {fileID: 0}
  m_Enabled: 1
  m_EditorHideFlags: 0
  m_Script: {fileID: 11500000, guid: 90cf6abfddda9234691e337eebf12a5d, type: 3}
  m_Name: Tower
  m_EditorClassIdentifier: 
  nameString: Tower
  prefab: {fileID: 912237547472790650, guid: 9977dae455470ac44b9a404db9a10c83, type: 3}
  sprite: {fileID: 21300000, guid: 3a549cd61f4d79e4b996c9978dac641f, type: 3}
  mesh: {fileID: 10206, guid: 0000000000000000e000000000000000, type: 0}
  particleDeathImpact: {fileID: 11400000, guid: dcd6fd07546a0fd42ae9a4def15f71d3, type: 2}
  minConstructionRadius: 4
  detectionRadius: 20
  batteryChargeRadius: 0
  constructionTimerMax: 5
  healthAmountMax: 70
  hasResourceGeneratorData: 0
  canRecharge: 0
  resourceGeneratorData:
    timerMax: 0
    resourceType: {fileID: 0}
    resourceDetectionRadius: 0
    maxResourceAmount: 0
  constructionResourceCostArray:
  - resourceType: {fileID: 11400000, guid: a5d4966b64ee5dc45b18b8abdea89974, type: 2}
    amount: 40
  - resourceType: {fileID: 11400000, guid: c07c6de26f9317e40ae5856b46c3cddc, type: 2}
    amount: 30
