%YAML 1.1
%TAG !u! tag:unity3d.com,2011:
--- !u!114 &11400000
MonoBehaviour:
  m_ObjectHideFlags: 0
  m_CorrespondingSourceObject: {fileID: 0}
  m_PrefabInstance: {fileID: 0}
  m_PrefabAsset: {fileID: 0}
  m_GameObject: {fileID: 0}
  m_Enabled: 1
  m_EditorHideFlags: 0
  m_Script: {fileID: 11500000, guid: b5aa7846745ab1e4dac3c60ec52e8cfd, type: 3}
  m_Name: Stone
  m_EditorClassIdentifier: 
  nameString: Stone
  sprite: {fileID: 21300000, guid: 7a449ef4abe418a4f900fb0178223ea6, type: 3}
  nameShort: S
  colorHex: 555555
