%YAML 1.1
%TAG !u! tag:unity3d.com,2011:
--- !u!114 &11400000
MonoBehaviour:
  m_ObjectHideFlags: 0
  m_CorrespondingSourceObject: {fileID: 0}
  m_PrefabInstance: {fileID: 0}
  m_PrefabAsset: {fileID: 0}
  m_GameObject: {fileID: 0}
  m_Enabled: 1
  m_EditorHideFlags: 0
  m_Script: {fileID: 11500000, guid: ee0df7948711e884b9e3b62976411c75, type: 3}
  m_Name: EnemyDeathFX
  m_EditorClassIdentifier: 
  deathImpact: {fileID: 9068782840137979132, guid: 0470dbe3026a9324d9bdb25de4da3ea0, type: 3}
